,,Player,Mar/19,Apr/19,May/19,Jun/19,Jul/19,Depósitos adicionais,Obs
,,Pagamento GB,"-11.090","-11.090",,,,,
,,Avexar Arcorapido,-,,,,,,Invativo porém lider
,,Camilato,"40,000",,,,,,
,,Mona Haste,"40,000",,,,,,
,,Pendragon Prodypt,"40,000",,,,,"1,837,821",
,,Vitux the Grey,"40,000",,,,,,
,,Xek Shrek,"40,000","40,000",,,,,
,,Dalprofon power,"40,000","40,000","40,000","40,000",,,
,,Saci on rollerblades,"40,000","40,000","40,000","40,000","40,000",,Pagou pelo char Jallim - Pagou 5 meses
,,Bruxinho Sapeca,"40,000","40,000","40,000",,,,
,,Draco Mithy,"40,000",,,,,,
,,Forleta,"40,000",,,,,,
,,Gromashy,"40,000","40,000",,,,,
,,Guizak,"40,000","40,000",,,,,
,,Paly dos Corre,"40,000",,,,,,
,,Sir Xuxot,"40,000","40,000",,,,,
,,Tosken,"40,000","40,000",,,,,
,,Witch Kiing,"40,000","40,000","40,000","40,000",,,
,,Yavii,,,,,,,Refund dos 80k efetuado
,,Atalistyle,,,,,,,Pendente
,,Baxis,,,,,,,Pendente
,,Cap Barba Branca,"40,000","40,000",,,,,
,,Dackgan,"40,000",,,,,,
,,Druidazinha domaxfrigo,"40,000","40,000",,,,,
,,Emajor,"40,000","40,000",,,,,
,,Guerreiro Mortall,"40,000",,,,,,
,,Harthur Mago,,,,,,,Pendente
,,Viserys In,"40,000","40,000",,,,,
,,Klipstein,"40,000","40,000","40,000","40,000","40,000",,Pagou 5 meses
,,Lkaa,"40,000",,,,,,
,,Moya Paladin,"40,000","40,000",,,,,
,,Mutant Dixon,,,,,,,Pendente
,,Rapbox,"40,000",,,,,,
,,Royal Todes,"40,000","40,000",,,,,
,,Silvo Santo,"40,000","40,000",,,,,
,,Zxiu,"40,000","40,000",,,,,Pagou 2 meses
,,Nut Warrior,"40,000","40,000",,,,,
,,Paladina Locona,,,,,,,Pendente
,,Ratzi Fudiadt,"40,000","40,000",,,,,
,,Checap Druid,"40,000","40,000",,,,,Pagou 2 meses
,,Hakuya Prodypt,"40,000",,,,,,
,,Mix Master Prodypt,"40,000",,,,,,
,,Valerion Prodypt,"40,000",,,,,,
,,Meroku Aram,"40,000",,,,,,
,,Pridezerah,"40,000","40,000",,,,,
,,Bloody Gore,"40,000",,,,,,
,,Beware Outlaw,-,,,,,,
,,Wololo Dami,-,,,,,,
,,Kechada,-,"40,000",,,,,
,,Katoshkinha,-,,,,,,
,,Lazinho,-,,,,,,
,,Loco Lope,-,,,,,,
,,Woottan,-,"40,000",,,,,
,,Belo Druidzin,-,"40,000",,,,,
,,Luke on Belobra,"40,000",,,,,,
,,Cura Criatura,"40,000",,,,,,